{"url":"https:\/\/ddtm.bitrix24.vn\/rest\/37552\/ffio7v4s9hae8sgv\/crm.contact.list.json","info":{"url":"https:\/\/ddtm.bitrix24.vn\/rest\/37552\/ffio7v4s9hae8sgv\/crm.contact.list.json","content_type":"application\/json; charset=utf-8","http_code":200,"header_size":1097,"request_size":209,"filetime":-1,"ssl_verify_result":0,"redirect_count":0,"total_time":0.458532,"namelookup_time":0.012488,"connect_time":0.061481,"pretransfer_time":0.125149,"size_upload":75,"size_download":5641,"speed_download":12316,"speed_upload":163,"download_content_length":-1,"upload_content_length":75,"starttransfer_time":0.125159,"redirect_time":0,"redirect_url":"","primary_ip":"18.140.166.245","certinfo":[],"primary_port":443,"local_ip":"192.168.0.123","local_port":49184},"params":{"method":"crm.contact.list","params":{"select":["ID","NAME","PHONE","EMAIL"]}},"result":{"result":[{"ID":"1348","NAME":"\ufe0f\ufe0f\ufe0f\ufe0f\ufe0f\ufe0f\ufe0f\ufe0f\ufe0f\ufe0f\ufe0f\ufe0f\ufe0f\ufe0f\ufe0f\ufe0f\ufe0f\ufe0f\ufe0f\ufe0f\ufe0f\ufe0f\ufe0f\ufe0f\ufe0f\ufe0f\ufe0f\ufe0f\ufe0f\ufe0f\ufe0f\ufe0f\ufe0f\ufe0f\ufe0f\ufe0f\ufe0f\ufe0f\ufe0f\ufe0f\ufe0f\ufe0f\ufe0f\ufe0f\ufe0f\ufe0f\ufe0f\ufe0f\ufe0f\ufe0f","PHONE":[{"ID":"3400","VALUE_TYPE":"WORK","VALUE":"+84934130329","TYPE_ID":"PHONE"}]},{"ID":"2090","NAME":"","PHONE":[{"ID":"7248","VALUE_TYPE":"Work","VALUE":"0923028630","TYPE_ID":"PHONE"}]},{"ID":"2102","NAME":"","PHONE":[{"ID":"7260","VALUE_TYPE":"Work","VALUE":"0909210216","TYPE_ID":"PHONE"}]},{"ID":"2108","NAME":"","PHONE":[{"ID":"7268","VALUE_TYPE":"Work","VALUE":"0977244420","TYPE_ID":"PHONE"}]},{"ID":"2112","NAME":"","PHONE":[{"ID":"7272","VALUE_TYPE":"Work","VALUE":"0988424461","TYPE_ID":"PHONE"}]},{"ID":"2180","NAME":"","PHONE":[{"ID":"9250","VALUE_TYPE":"Work","VALUE":"0919876004","TYPE_ID":"PHONE"}]},{"ID":"2288","NAME":"","PHONE":[{"ID":"12258","VALUE_TYPE":"Work","VALUE":"0986306446","TYPE_ID":"PHONE"}]},{"ID":"2302","NAME":"","PHONE":[{"ID":"12546","VALUE_TYPE":"Work","VALUE":"0366683147","TYPE_ID":"PHONE"}]},{"ID":"2314","NAME":"","PHONE":[{"ID":"13972","VALUE_TYPE":"Work","VALUE":"0333850903","TYPE_ID":"PHONE"}]},{"ID":"2388","NAME":"","PHONE":[{"ID":"18410","VALUE_TYPE":"Work","VALUE":"0926223934","TYPE_ID":"PHONE"}]},{"ID":"2464","NAME":"","PHONE":[{"ID":"24128","VALUE_TYPE":"Work","VALUE":"0944187258","TYPE_ID":"PHONE"}]},{"ID":"2494","NAME":"","PHONE":[{"ID":"26188","VALUE_TYPE":"Work","VALUE":"0375785701","TYPE_ID":"PHONE"}]},{"ID":"2650","NAME":"","PHONE":[{"ID":"36178","VALUE_TYPE":"Work","VALUE":"0765346789","TYPE_ID":"PHONE"}]},{"ID":"2728","NAME":"","PHONE":[{"ID":"40322","VALUE_TYPE":"Work","VALUE":"0987141776","TYPE_ID":"PHONE"}]},{"ID":"2828","NAME":"","PHONE":[{"ID":"42108","VALUE_TYPE":"Work","VALUE":"0935519637","TYPE_ID":"PHONE"}]},{"ID":"3060","NAME":"","PHONE":[{"ID":"49364","VALUE_TYPE":"Work","VALUE":"0833236699","TYPE_ID":"PHONE"}]},{"ID":"3158","NAME":"","PHONE":[{"ID":"50290","VALUE_TYPE":"Work","VALUE":"0362046239","TYPE_ID":"PHONE"}]},{"ID":"6214","NAME":" 0342798767 - Cu\u1ed9c g\u1ecdi \u0111i"},{"ID":"6234","NAME":" 0355568844 - Cu\u1ed9c g\u1ecdi \u0111i"},{"ID":"6232","NAME":" 0962581371 - Cu\u1ed9c g\u1ecdi \u0111\u1ebfn"},{"ID":"6228","NAME":" 0989636674 - Cu\u1ed9c g\u1ecdi \u0111\u1ebfn"},{"ID":"6212","NAME":" 357980033 - Cu\u1ed9c g\u1ecdi \u0111\u1ebfn"},{"ID":"6240","NAME":" 363016478 - Cu\u1ed9c g\u1ecdi \u0111\u1ebfn"},{"ID":"6242","NAME":" 386318751 - Cu\u1ed9c g\u1ecdi \u0111\u1ebfn"},{"ID":"6222","NAME":" 783742013 - Cu\u1ed9c g\u1ecdi \u0111\u1ebfn"},{"ID":"6218","NAME":" 899958977 - Cu\u1ed9c g\u1ecdi \u0111\u1ebfn"},{"ID":"3664","NAME":" ANH D\u0168NG","PHONE":[{"ID":"80440","VALUE_TYPE":"WORK","VALUE":"907613075","TYPE_ID":"PHONE"}]},{"ID":"4194","NAME":" anh L\u1ee3i ","PHONE":[{"ID":"96600","VALUE_TYPE":"WORK","VALUE":"912621515","TYPE_ID":"PHONE"}]},{"ID":"4198","NAME":" anh Ph\u01b0\u01a1ng ","PHONE":[{"ID":"96646","VALUE_TYPE":"WORK","VALUE":"929322834","TYPE_ID":"PHONE"}]},{"ID":"4512","NAME":" CH\u00c2U","PHONE":[{"ID":"102746","VALUE_TYPE":"OTHER","VALUE":"+84942882343","TYPE_ID":"PHONE"}]},{"ID":"6236","NAME":" Ho\u00e0n t\u1ea5t bi\u1ec3u m\u1eabu CRM \u0022Form Live Web Chat\u00a0\u0022"},{"ID":"3660","NAME":" T\u1ea0 TH\u1eca H\u01af\u1edcNG","PHONE":[{"ID":"80432","VALUE_TYPE":"WORK","VALUE":"934735300","TYPE_ID":"PHONE"}]},{"ID":"6216","NAME":" Ti\u00eau Chim "},{"ID":"6224","NAME":" Ti\u00eau Kim Test "},{"ID":"6226","NAME":" Ti\u00eau Kim Test 2 "},{"ID":"6230","NAME":" Ti\u00eau Kim Th\u1eed Nghi\u1ec7m 3 "},{"ID":"4648","NAME":"????","PHONE":[{"ID":"103614","VALUE_TYPE":"OTHER","VALUE":"+9879876543322","TYPE_ID":"PHONE"}]},{"ID":"5666","NAME":"019001088 new","PHONE":[{"ID":"121028","VALUE_TYPE":"Work","VALUE":"019001088","TYPE_ID":"PHONE"}]},{"ID":"1672","NAME":"02363562626 new","PHONE":[{"ID":"4140","VALUE_TYPE":"Work","VALUE":"02363562626","TYPE_ID":"PHONE"}]},{"ID":"5762","NAME":"02363648649 new","PHONE":[{"ID":"121274","VALUE_TYPE":"Work","VALUE":"02363648649","TYPE_ID":"PHONE"}]},{"ID":"1520","NAME":"02366252015 new","PHONE":[{"ID":"3824","VALUE_TYPE":"Work","VALUE":"02366252015","TYPE_ID":"PHONE"}]},{"ID":"5622","NAME":"02433659999 new","PHONE":[{"ID":"120922","VALUE_TYPE":"Work","VALUE":"02433659999","TYPE_ID":"PHONE"}]},{"ID":"1564","NAME":"02437689679 new","PHONE":[{"ID":"3918","VALUE_TYPE":"Work","VALUE":"02437689679","TYPE_ID":"PHONE"}]},{"ID":"5332","NAME":"02439728621 new","PHONE":[{"ID":"120172","VALUE_TYPE":"Work","VALUE":"02439728621","TYPE_ID":"PHONE"}]},{"ID":"5776","NAME":"02837425566 new","PHONE":[{"ID":"121302","VALUE_TYPE":"Work","VALUE":"02837425566","TYPE_ID":"PHONE"}]},{"ID":"1566","NAME":"02838641161 new","PHONE":[{"ID":"3922","VALUE_TYPE":"Work","VALUE":"02838641161","TYPE_ID":"PHONE"}]},{"ID":"1594","NAME":"02838644764 new","PHONE":[{"ID":"3978","VALUE_TYPE":"Work","VALUE":"02838644764","TYPE_ID":"PHONE"}]},{"ID":"1578","NAME":"02838658421 new","PHONE":[{"ID":"3946","VALUE_TYPE":"Work","VALUE":"02838658421","TYPE_ID":"PHONE"}]},{"ID":"1580","NAME":"02838662801 new","PHONE":[{"ID":"3950","VALUE_TYPE":"Work","VALUE":"02838662801","TYPE_ID":"PHONE"}]},{"ID":"1586","NAME":"02838685174 new","PHONE":[{"ID":"3962","VALUE_TYPE":"Work","VALUE":"02838685174","TYPE_ID":"PHONE"}]}],"next":50,"total":3128,"time":{"start":1644893940.959151,"finish":1644893941.01993,"duration":0.06077885627746582,"processing":0.04399418830871582,"date_start":"2022-02-15T05:59:00+03:00","date_finish":"2022-02-15T05:59:01+03:00"}}}