{"url":"https:\/\/ddtm.bitrix24.vn\/rest\/37552\/ffio7v4s9hae8sgv\/crm.contact.list.json","info":{"url":"https:\/\/ddtm.bitrix24.vn\/rest\/37552\/ffio7v4s9hae8sgv\/crm.contact.list.json","content_type":"application\/json; charset=utf-8","http_code":200,"header_size":1097,"request_size":210,"filetime":-1,"ssl_verify_result":0,"redirect_count":0,"total_time":0.527309,"namelookup_time":0.002099,"connect_time":0.052488,"pretransfer_time":0.133082,"size_upload":102,"size_download":6837,"speed_download":12973,"speed_upload":193,"download_content_length":-1,"upload_content_length":102,"starttransfer_time":0.133094,"redirect_time":0,"redirect_url":"","primary_ip":"18.140.166.245","certinfo":[],"primary_port":443,"local_ip":"192.168.0.123","local_port":49835},"params":{"method":"crm.contact.list","params":{"filter":{"TYPE_ID":"CLIENT"},"select":["ID","NAME","PHONE","EMAIL"]}},"result":{"result":[{"ID":"8","NAME":"Th\u00e0nhDanh","PHONE":[{"ID":"656","VALUE_TYPE":"WORK","VALUE":"+84354764555","TYPE_ID":"PHONE"}]},{"ID":"1336","NAME":"Ch\u1ecb H\u00e2n","PHONE":[{"ID":"3354","VALUE_TYPE":"MOBILE","VALUE":"0986815526","TYPE_ID":"PHONE"}]},{"ID":"2052","NAME":"Anh Tu\u1ea5n - Ch\u1ed3ng Ch\u1ecb Thanh Thu\u1ef7 - Royal City","PHONE":[{"ID":"5144","VALUE_TYPE":"WORK","VALUE":"0973525656","TYPE_ID":"PHONE"}]},{"ID":"2056","NAME":"Ch\u1ecb H\u1eb1ng - Royal City ","PHONE":[{"ID":"5450","VALUE_TYPE":"MOBILE","VALUE":"0969065065","TYPE_ID":"PHONE"}]},{"ID":"2758","NAME":"Anh V\u00e2n - S\u00e0i G\u00f2n ","PHONE":[{"ID":"41278","VALUE_TYPE":"WORK","VALUE":"0949160979","TYPE_ID":"PHONE"}]},{"ID":"2846","NAME":"Tien","PHONE":[{"ID":"42606","VALUE_TYPE":"WORK","VALUE":"0395187319","TYPE_ID":"PHONE"}]},{"ID":"3482","NAME":"Ph\u01b0\u01a1ng - L\u1ea9u N\u1ea5m Gia Kh\u00e1nh ","PHONE":[{"ID":"54720","VALUE_TYPE":"WORK","VALUE":"0943587689","TYPE_ID":"PHONE"}]},{"ID":"3494","NAME":"\u0110\u1ed3ng Vi\u1ebft Ph\u01b0\u01a1ng \u0110\u00f4ng","PHONE":[{"ID":"61434","VALUE_TYPE":"WORK","VALUE":"0763713148","TYPE_ID":"PHONE"}]},{"ID":"3496","NAME":"Cao Tu\u1ea5n Anh","PHONE":[{"ID":"61474","VALUE_TYPE":"WORK","VALUE":"0366605963","TYPE_ID":"PHONE"}]},{"ID":"3498","NAME":"Anh Long","PHONE":[{"ID":"61490","VALUE_TYPE":"WORK","VALUE":"909948118","TYPE_ID":"PHONE"}]},{"ID":"3500","NAME":"Anh S\u01a1n ","PHONE":[{"ID":"61496","VALUE_TYPE":"WORK","VALUE":"933426529","TYPE_ID":"PHONE"}]},{"ID":"3502","NAME":"V\u0103n H\u1ea3i","PHONE":[{"ID":"62080","VALUE_TYPE":"WORK","VALUE":"0905574208","TYPE_ID":"PHONE"}]},{"ID":"3504","NAME":"S\u1ef9","PHONE":[{"ID":"62086","VALUE_TYPE":"WORK","VALUE":"0332412682","TYPE_ID":"PHONE"}]},{"ID":"3506","NAME":"V\u0103n Binh","PHONE":[{"ID":"62100","VALUE_TYPE":"WORK","VALUE":"0374672613","TYPE_ID":"PHONE"}]},{"ID":"3508","NAME":"Xu\u00e2n Du\u1eabn","PHONE":[{"ID":"62134","VALUE_TYPE":"WORK","VALUE":"0769768576","TYPE_ID":"PHONE"}]},{"ID":"3510","NAME":"Nguy\u1ec5n Th\u1ecb M\u00e2y","PHONE":[{"ID":"62288","VALUE_TYPE":"WORK","VALUE":"0975681679","TYPE_ID":"PHONE"}]},{"ID":"3512","NAME":"Nguy\u1ec5n V\u0103n H\u01b0\u1edfng","PHONE":[{"ID":"62290","VALUE_TYPE":"WORK","VALUE":"0813131314","TYPE_ID":"PHONE"}]},{"ID":"3514","NAME":"Nguy\u1ec5n V\u0103n C\u01b0\u1eddng","PHONE":[{"ID":"62484","VALUE_TYPE":"WORK","VALUE":"0339764953","TYPE_ID":"PHONE"}]},{"ID":"3516","NAME":"V\u0103n T\u1edbi","PHONE":[{"ID":"62516","VALUE_TYPE":"WORK","VALUE":"0392518760","TYPE_ID":"PHONE"}]},{"ID":"3518","NAME":"Phong Nguyen","PHONE":[{"ID":"62590","VALUE_TYPE":"WORK","VALUE":"0964335701","TYPE_ID":"PHONE"}]},{"ID":"3520","NAME":"Thanh","PHONE":[{"ID":"62596","VALUE_TYPE":"WORK","VALUE":"0963265987","TYPE_ID":"PHONE"}]},{"ID":"3522","NAME":"L\u00ea minh v\u1eb9n","PHONE":[{"ID":"62788","VALUE_TYPE":"WORK","VALUE":"0932844584","TYPE_ID":"PHONE"}]},{"ID":"3524","NAME":"Tr\u1ecbnh V\u0103n B\u1eafc","PHONE":[{"ID":"64472","VALUE_TYPE":"WORK","VALUE":"0986877921","TYPE_ID":"PHONE"}]},{"ID":"3526","NAME":"Kh\u01b0u Ch\u1ea5n Phong","PHONE":[{"ID":"64494","VALUE_TYPE":"WORK","VALUE":"0796847726","TYPE_ID":"PHONE"}]},{"ID":"3528","NAME":"\u0110\u1eb7ng V\u0103n Long","PHONE":[{"ID":"64596","VALUE_TYPE":"WORK","VALUE":"0961243992","TYPE_ID":"PHONE"}]},{"ID":"3530","NAME":"Tu\u1ea5n L\u0129nh","PHONE":[{"ID":"64618","VALUE_TYPE":"WORK","VALUE":"0905545413","TYPE_ID":"PHONE"}]},{"ID":"3532","NAME":"T\u00f9ng B\u00e0nh","PHONE":[{"ID":"64672","VALUE_TYPE":"WORK","VALUE":"0932710177","TYPE_ID":"PHONE"}]},{"ID":"3534","NAME":"Nh\u1eadt","PHONE":[{"ID":"65012","VALUE_TYPE":"WORK","VALUE":"0989266044","TYPE_ID":"PHONE"}]},{"ID":"3536","NAME":"Nguy\u1ec5n Long","PHONE":[{"ID":"66102","VALUE_TYPE":"WORK","VALUE":"0969549856","TYPE_ID":"PHONE"}]},{"ID":"3538","NAME":"Nguy\u1ec5n C\u00f4ng Th\u1ee9c","PHONE":[{"ID":"67250","VALUE_TYPE":"WORK","VALUE":"0979885623","TYPE_ID":"PHONE"}]},{"ID":"3540","NAME":"Nguy\u1ec5n Ph\u00fa C\u01b0\u1eddng","PHONE":[{"ID":"67274","VALUE_TYPE":"WORK","VALUE":"0988893194","TYPE_ID":"PHONE"}]},{"ID":"3542","NAME":"V\u00f5 Huy Thi\u00ean","PHONE":[{"ID":"67350","VALUE_TYPE":"WORK","VALUE":"0963186247","TYPE_ID":"PHONE"}]},{"ID":"3544","NAME":"Ho\u00e0ng V\u0103n Th\u00ecn","PHONE":[{"ID":"67430","VALUE_TYPE":"WORK","VALUE":"0853380643","TYPE_ID":"PHONE"}]},{"ID":"3546","NAME":"T\u1eeb Qu\u1ed1c Th\u00e0nh","PHONE":[{"ID":"67432","VALUE_TYPE":"WORK","VALUE":"0934766696","TYPE_ID":"PHONE"}]},{"ID":"3548","NAME":"Tr\u1ea7n Th\u1ecb B\u00edch H\u01b0\u1eddng","PHONE":[{"ID":"67438","VALUE_TYPE":"WORK","VALUE":"0919532817","TYPE_ID":"PHONE"}]},{"ID":"3550","NAME":"Nguy\u1ec5n Quang Chi\u1ebfn","PHONE":[{"ID":"67478","VALUE_TYPE":"WORK","VALUE":"0966461602","TYPE_ID":"PHONE"}]},{"ID":"3552","NAME":"Ho\u00e0ng Ph\u01b0\u1edbc Thi\u00ean","PHONE":[{"ID":"69842","VALUE_TYPE":"WORK","VALUE":"0961645603","TYPE_ID":"PHONE"}]},{"ID":"3558","NAME":"H\u1ed3 V\u0103n T\u00f9ng","PHONE":[{"ID":"70288","VALUE_TYPE":"WORK","VALUE":"0835201257","TYPE_ID":"PHONE"}]},{"ID":"3560","NAME":"L\u00ea Ng\u1ecdc H\u01b0ng","PHONE":[{"ID":"70300","VALUE_TYPE":"WORK","VALUE":"0987886150","TYPE_ID":"PHONE"}]},{"ID":"3562","NAME":"Anh H\u00f9ng","PHONE":[{"ID":"78884","VALUE_TYPE":"WORK","VALUE":"918165993","TYPE_ID":"PHONE"}]},{"ID":"3564","NAME":"Nguy\u1ec5n V\u0103n H\u1ea3i","PHONE":[{"ID":"78886","VALUE_TYPE":"WORK","VALUE":"0362129021","TYPE_ID":"PHONE"}]},{"ID":"3566","NAME":"H\u1ed3ng v\u0103n t\u1ecbnh","PHONE":[{"ID":"78962","VALUE_TYPE":"WORK","VALUE":"0354946024","TYPE_ID":"PHONE"}]},{"ID":"3568","NAME":"Anh Tu\u1ea5n","PHONE":[{"ID":"79052","VALUE_TYPE":"WORK","VALUE":"912579266","TYPE_ID":"PHONE"}]},{"ID":"3570","NAME":"Anh Nam","PHONE":[{"ID":"79076","VALUE_TYPE":"WORK","VALUE":"972126910","TYPE_ID":"PHONE"}]},{"ID":"3572","NAME":"Ha Tam","PHONE":[{"ID":"79130","VALUE_TYPE":"WORK","VALUE":"0837559050","TYPE_ID":"PHONE"}]},{"ID":"3574","NAME":"L\u00ea Ho\u00e0ng Phong","PHONE":[{"ID":"79132","VALUE_TYPE":"WORK","VALUE":"0911985983","TYPE_ID":"PHONE"}]},{"ID":"3576","NAME":"Anh H\u00f4m ","PHONE":[{"ID":"79238","VALUE_TYPE":"WORK","VALUE":"914084838","TYPE_ID":"PHONE"}]},{"ID":"3578","NAME":"Nguy\u1ec5n V\u0103n ph\u00fac","PHONE":[{"ID":"79262","VALUE_TYPE":"WORK","VALUE":"332857777","TYPE_ID":"PHONE"}]},{"ID":"3580","NAME":"\u0110\u1ed7 Ch\u00ed Khang","PHONE":[{"ID":"79284","VALUE_TYPE":"WORK","VALUE":"0949805201","TYPE_ID":"PHONE"}]},{"ID":"3582","NAME":"Tr\u01b0\u01a1ng th\u1ecb b\u00ecnh","PHONE":[{"ID":"79346","VALUE_TYPE":"WORK","VALUE":"0388866935","TYPE_ID":"PHONE"}]}],"next":50,"total":140,"time":{"start":1644893725.283991,"finish":1644893725.374152,"duration":0.09016084671020508,"processing":0.0724630355834961,"date_start":"2022-02-15T05:55:25+03:00","date_finish":"2022-02-15T05:55:25+03:00"}}}