{"url":"https:\/\/ddtm.bitrix24.vn\/rest\/1\/ybwzqvh1n5n8qld0\/crm.contact.list.json","info":{"url":"https:\/\/ddtm.bitrix24.vn\/rest\/1\/ybwzqvh1n5n8qld0\/crm.contact.list.json","content_type":"application\/json; charset=utf-8","http_code":200,"header_size":1099,"request_size":206,"filetime":-1,"ssl_verify_result":0,"redirect_count":0,"total_time":1.033413,"namelookup_time":0.037236,"connect_time":0.109083,"pretransfer_time":0.265048,"size_upload":319,"size_download":12809,"speed_download":12399,"speed_upload":308,"download_content_length":-1,"upload_content_length":319,"starttransfer_time":0.265096,"redirect_time":0,"redirect_url":"","primary_ip":"18.140.166.245","certinfo":[],"primary_port":443,"local_ip":"103.226.249.222","local_port":38772,"http_version":3,"protocol":2,"ssl_verifyresult":0,"scheme":"HTTPS","appconnect_time_us":264732,"connect_time_us":109083,"namelookup_time_us":37236,"pretransfer_time_us":265048,"redirect_time_us":0,"starttransfer_time_us":265096,"total_time_us":1033413},"params":{"method":"crm.contact.list","params":{"filter":{"PHONE":null},"select":["ID","NAME","PHONE","EMAIL","ADDRESS","ADDRESS_CITY","ADDRESS_REGION","ADDRESS_PROVINCE","ADDRESS_COUNTRY","TYPE_ID","SOURCE_ID","ASSIGNED_BY_ID","MODIFY_BY_ID"]}},"result":{"result":[{"ID":"4","NAME":"","ADDRESS":null,"ADDRESS_CITY":null,"ADDRESS_REGION":null,"ADDRESS_PROVINCE":null,"ADDRESS_COUNTRY":"Vi\u1ec7t Nam","TYPE_ID":null,"SOURCE_ID":"2|FACEBOOK","ASSIGNED_BY_ID":"40","MODIFY_BY_ID":"1","EMAIL":[{"ID":"301812","VALUE_TYPE":"WORK","VALUE":"ddtmonline@gmail.com","TYPE_ID":"EMAIL"},{"ID":"302714","VALUE_TYPE":"WORK","VALUE":"sample@email.tst","TYPE_ID":"EMAIL"}]},{"ID":"6","NAME":"L\u1ee5a","ADDRESS":null,"ADDRESS_CITY":null,"ADDRESS_REGION":null,"ADDRESS_PROVINCE":null,"ADDRESS_COUNTRY":null,"TYPE_ID":null,"SOURCE_ID":"2|FACEBOOK","ASSIGNED_BY_ID":"1","MODIFY_BY_ID":"1","PHONE":[{"ID":"30","VALUE_TYPE":"WORK","VALUE":"+84373301576","TYPE_ID":"PHONE"}]},{"ID":"8","NAME":"Th\u00e0nhDanh","ADDRESS":null,"ADDRESS_CITY":null,"ADDRESS_REGION":null,"ADDRESS_PROVINCE":null,"ADDRESS_COUNTRY":null,"TYPE_ID":"CLIENT","SOURCE_ID":"2|FACEBOOK","ASSIGNED_BY_ID":"1","MODIFY_BY_ID":"1","PHONE":[{"ID":"656","VALUE_TYPE":"WORK","VALUE":"+84354764555","TYPE_ID":"PHONE"}]},{"ID":"10","NAME":"Ph\u1ea1m","ADDRESS":null,"ADDRESS_CITY":null,"ADDRESS_REGION":null,"ADDRESS_PROVINCE":null,"ADDRESS_COUNTRY":null,"TYPE_ID":null,"SOURCE_ID":"2|FACEBOOK","ASSIGNED_BY_ID":"1","MODIFY_BY_ID":"1","PHONE":[{"ID":"24","VALUE_TYPE":"WORK","VALUE":"+84914633995","TYPE_ID":"PHONE"}]},{"ID":"12","NAME":"Trung","ADDRESS":null,"ADDRESS_CITY":null,"ADDRESS_REGION":null,"ADDRESS_PROVINCE":null,"ADDRESS_COUNTRY":null,"TYPE_ID":null,"SOURCE_ID":"2|FACEBOOK","ASSIGNED_BY_ID":"42","MODIFY_BY_ID":"1"},{"ID":"14","NAME":"\u0110\u1eddi","ADDRESS":null,"ADDRESS_CITY":null,"ADDRESS_REGION":null,"ADDRESS_PROVINCE":null,"ADDRESS_COUNTRY":null,"TYPE_ID":null,"SOURCE_ID":"2|FACEBOOK","ASSIGNED_BY_ID":"48","MODIFY_BY_ID":"48"},{"ID":"16","NAME":"Nguy\u1ec5n H\u1ed3ng S\u01a1n","ADDRESS":"TDP C\u1ea7u G\u00e1o \/ B\u00e1ch Quang \/ TP S\u00f4ng c\u00f4ng, M\u1ecf Ch\u00e8, S\u00f4ng C\u00f4ng, Th\u00e1i Nguy\u00ean","ADDRESS_CITY":"S\u00f4ng C\u00f4ng","ADDRESS_REGION":"M\u1ecf Ch\u00e8","ADDRESS_PROVINCE":"Th\u00e1i Nguy\u00ean","ADDRESS_COUNTRY":"Vi\u1ec7t Nam","TYPE_ID":null,"SOURCE_ID":"2|FACEBOOK","ASSIGNED_BY_ID":"48","MODIFY_BY_ID":"1","PHONE":[{"ID":"78","VALUE_TYPE":"WORK","VALUE":"+84348871269","TYPE_ID":"PHONE"}],"EMAIL":[{"ID":"343680","VALUE_TYPE":"WORK","VALUE":"ddtmonline@gmail.com","TYPE_ID":"EMAIL"}]},{"ID":"18","NAME":"Nguy\u1ec5n","ADDRESS":null,"ADDRESS_CITY":null,"ADDRESS_REGION":null,"ADDRESS_PROVINCE":null,"ADDRESS_COUNTRY":null,"TYPE_ID":null,"SOURCE_ID":"2|FACEBOOK","ASSIGNED_BY_ID":"1","MODIFY_BY_ID":"1"},{"ID":"20","NAME":"Nguy\u1ec5n","ADDRESS":null,"ADDRESS_CITY":null,"ADDRESS_REGION":null,"ADDRESS_PROVINCE":null,"ADDRESS_COUNTRY":null,"TYPE_ID":null,"SOURCE_ID":"2|FACEBOOK","ASSIGNED_BY_ID":"1","MODIFY_BY_ID":"122"},{"ID":"22","NAME":"L\u00ea","ADDRESS":null,"ADDRESS_CITY":null,"ADDRESS_REGION":null,"ADDRESS_PROVINCE":null,"ADDRESS_COUNTRY":null,"TYPE_ID":null,"SOURCE_ID":"2|FACEBOOK","ASSIGNED_BY_ID":"1","MODIFY_BY_ID":"1","PHONE":[{"ID":"52","VALUE_TYPE":"WORK","VALUE":"+84349844346","TYPE_ID":"PHONE"}]},{"ID":"24","NAME":"Sooyun","ADDRESS":null,"ADDRESS_CITY":null,"ADDRESS_REGION":null,"ADDRESS_PROVINCE":null,"ADDRESS_COUNTRY":null,"TYPE_ID":null,"SOURCE_ID":"2|FACEBOOK","ASSIGNED_BY_ID":"6","MODIFY_BY_ID":"6"},{"ID":"26","NAME":"Nguy\u1ec5n","ADDRESS":null,"ADDRESS_CITY":null,"ADDRESS_REGION":null,"ADDRESS_PROVINCE":null,"ADDRESS_COUNTRY":null,"TYPE_ID":null,"SOURCE_ID":"2|FACEBOOK","ASSIGNED_BY_ID":"1","MODIFY_BY_ID":"128","PHONE":[{"ID":"546","VALUE_TYPE":"WORK","VALUE":"+84932634605","TYPE_ID":"PHONE"}]},{"ID":"28","NAME":"V\u0169","ADDRESS":null,"ADDRESS_CITY":null,"ADDRESS_REGION":null,"ADDRESS_PROVINCE":null,"ADDRESS_COUNTRY":null,"TYPE_ID":null,"SOURCE_ID":"2|FACEBOOK","ASSIGNED_BY_ID":"18","MODIFY_BY_ID":"18","PHONE":[{"ID":"216","VALUE_TYPE":"WORK","VALUE":"+84911836470","TYPE_ID":"PHONE"}]},{"ID":"30","NAME":"H\u01b0ng","ADDRESS":null,"ADDRESS_CITY":null,"ADDRESS_REGION":null,"ADDRESS_PROVINCE":null,"ADDRESS_COUNTRY":null,"TYPE_ID":null,"SOURCE_ID":"2|FACEBOOK","ASSIGNED_BY_ID":"60","MODIFY_BY_ID":"1"},{"ID":"32","NAME":"Ti\u1ebfn","ADDRESS":null,"ADDRESS_CITY":null,"ADDRESS_REGION":null,"ADDRESS_PROVINCE":null,"ADDRESS_COUNTRY":null,"TYPE_ID":null,"SOURCE_ID":"2|FACEBOOK","ASSIGNED_BY_ID":"26","MODIFY_BY_ID":"26"},{"ID":"34","NAME":"Cos-Concept","ADDRESS":null,"ADDRESS_CITY":null,"ADDRESS_REGION":null,"ADDRESS_PROVINCE":null,"ADDRESS_COUNTRY":null,"TYPE_ID":null,"SOURCE_ID":"2|FACEBOOK","ASSIGNED_BY_ID":"32","MODIFY_BY_ID":"32"},{"ID":"36","NAME":"Th\u1eafng","ADDRESS":null,"ADDRESS_CITY":null,"ADDRESS_REGION":null,"ADDRESS_PROVINCE":null,"ADDRESS_COUNTRY":null,"TYPE_ID":null,"SOURCE_ID":"2|FACEBOOK","ASSIGNED_BY_ID":"4","MODIFY_BY_ID":"4"},{"ID":"38","NAME":"V\u0169","ADDRESS":null,"ADDRESS_CITY":null,"ADDRESS_REGION":null,"ADDRESS_PROVINCE":null,"ADDRESS_COUNTRY":null,"TYPE_ID":null,"SOURCE_ID":"2|FACEBOOK","ASSIGNED_BY_ID":"42","MODIFY_BY_ID":"58"},{"ID":"40","NAME":"Huy","ADDRESS":null,"ADDRESS_CITY":null,"ADDRESS_REGION":null,"ADDRESS_PROVINCE":null,"ADDRESS_COUNTRY":null,"TYPE_ID":null,"SOURCE_ID":"2|FACEBOOK","ASSIGNED_BY_ID":"4","MODIFY_BY_ID":"4","PHONE":[{"ID":"92","VALUE_TYPE":"WORK","VALUE":"+84948504905","TYPE_ID":"PHONE"}]},{"ID":"42","NAME":"B\u00e3o","ADDRESS":null,"ADDRESS_CITY":null,"ADDRESS_REGION":null,"ADDRESS_PROVINCE":null,"ADDRESS_COUNTRY":null,"TYPE_ID":null,"SOURCE_ID":"2|FACEBOOK","ASSIGNED_BY_ID":"1","MODIFY_BY_ID":"1"},{"ID":"44","NAME":"H\u1ea3i","ADDRESS":null,"ADDRESS_CITY":null,"ADDRESS_REGION":null,"ADDRESS_PROVINCE":null,"ADDRESS_COUNTRY":null,"TYPE_ID":null,"SOURCE_ID":"2|FACEBOOK","ASSIGNED_BY_ID":"26","MODIFY_BY_ID":"26"},{"ID":"46","NAME":"Danh","ADDRESS":null,"ADDRESS_CITY":null,"ADDRESS_REGION":null,"ADDRESS_PROVINCE":null,"ADDRESS_COUNTRY":null,"TYPE_ID":null,"SOURCE_ID":"2|FACEBOOK","ASSIGNED_BY_ID":"30","MODIFY_BY_ID":"30"},{"ID":"48","NAME":"Li\u00ean","ADDRESS":null,"ADDRESS_CITY":null,"ADDRESS_REGION":null,"ADDRESS_PROVINCE":null,"ADDRESS_COUNTRY":null,"TYPE_ID":null,"SOURCE_ID":"2|FACEBOOK","ASSIGNED_BY_ID":"30","MODIFY_BY_ID":"30","PHONE":[{"ID":"140","VALUE_TYPE":"WORK","VALUE":"+84966912686","TYPE_ID":"PHONE"}]},{"ID":"50","NAME":"Sinh","ADDRESS":null,"ADDRESS_CITY":null,"ADDRESS_REGION":null,"ADDRESS_PROVINCE":null,"ADDRESS_COUNTRY":null,"TYPE_ID":null,"SOURCE_ID":"2|FACEBOOK","ASSIGNED_BY_ID":"1","MODIFY_BY_ID":"1"},{"ID":"52","NAME":"Anh","ADDRESS":null,"ADDRESS_CITY":null,"ADDRESS_REGION":null,"ADDRESS_PROVINCE":null,"ADDRESS_COUNTRY":null,"TYPE_ID":null,"SOURCE_ID":"2|FACEBOOK","ASSIGNED_BY_ID":"36","MODIFY_BY_ID":"36"},{"ID":"54","NAME":"Vu","ADDRESS":null,"ADDRESS_CITY":null,"ADDRESS_REGION":null,"ADDRESS_PROVINCE":null,"ADDRESS_COUNTRY":null,"TYPE_ID":null,"SOURCE_ID":"2|FACEBOOK","ASSIGNED_BY_ID":"26","MODIFY_BY_ID":"26"},{"ID":"56","NAME":"Nguyen","ADDRESS":null,"ADDRESS_CITY":null,"ADDRESS_REGION":null,"ADDRESS_PROVINCE":null,"ADDRESS_COUNTRY":null,"TYPE_ID":null,"SOURCE_ID":"2|FACEBOOK","ASSIGNED_BY_ID":"1","MODIFY_BY_ID":"158","PHONE":[{"ID":"142","VALUE_TYPE":"WORK","VALUE":"+84935489433","TYPE_ID":"PHONE"}]},{"ID":"58","NAME":"Nguy\u00ean","ADDRESS":null,"ADDRESS_CITY":null,"ADDRESS_REGION":null,"ADDRESS_PROVINCE":null,"ADDRESS_COUNTRY":null,"TYPE_ID":null,"SOURCE_ID":"2|FACEBOOK","ASSIGNED_BY_ID":"4","MODIFY_BY_ID":"4","PHONE":[{"ID":"130","VALUE_TYPE":"WORK","VALUE":"+84982406389","TYPE_ID":"PHONE"}]},{"ID":"60","NAME":"H\u1ea3i","ADDRESS":null,"ADDRESS_CITY":null,"ADDRESS_REGION":null,"ADDRESS_PROVINCE":null,"ADDRESS_COUNTRY":null,"TYPE_ID":null,"SOURCE_ID":"2|FACEBOOK","ASSIGNED_BY_ID":"26","MODIFY_BY_ID":"26"},{"ID":"62","NAME":"Thu","ADDRESS":null,"ADDRESS_CITY":null,"ADDRESS_REGION":null,"ADDRESS_PROVINCE":null,"ADDRESS_COUNTRY":null,"TYPE_ID":null,"SOURCE_ID":"2|FACEBOOK","ASSIGNED_BY_ID":"30","MODIFY_BY_ID":"30"},{"ID":"64","NAME":"Super","ADDRESS":null,"ADDRESS_CITY":null,"ADDRESS_REGION":null,"ADDRESS_PROVINCE":null,"ADDRESS_COUNTRY":null,"TYPE_ID":null,"SOURCE_ID":"2|FACEBOOK","ASSIGNED_BY_ID":"48","MODIFY_BY_ID":"48"},{"ID":"66","NAME":"Huy\u1ec1n M\u00f4n","ADDRESS":null,"ADDRESS_CITY":null,"ADDRESS_REGION":null,"ADDRESS_PROVINCE":null,"ADDRESS_COUNTRY":null,"TYPE_ID":null,"SOURCE_ID":"2|FACEBOOK","ASSIGNED_BY_ID":"30","MODIFY_BY_ID":"30"},{"ID":"68","NAME":"\u0110\u1ea1t","ADDRESS":null,"ADDRESS_CITY":null,"ADDRESS_REGION":null,"ADDRESS_PROVINCE":null,"ADDRESS_COUNTRY":null,"TYPE_ID":null,"SOURCE_ID":"2|FACEBOOK","ASSIGNED_BY_ID":"1","MODIFY_BY_ID":"1"},{"ID":"70","NAME":"Phuong Anh","ADDRESS":null,"ADDRESS_CITY":null,"ADDRESS_REGION":null,"ADDRESS_PROVINCE":null,"ADDRESS_COUNTRY":null,"TYPE_ID":null,"SOURCE_ID":"2|FACEBOOK","ASSIGNED_BY_ID":"4","MODIFY_BY_ID":"4"},{"ID":"72","NAME":"Thinh","ADDRESS":null,"ADDRESS_CITY":null,"ADDRESS_REGION":null,"ADDRESS_PROVINCE":null,"ADDRESS_COUNTRY":null,"TYPE_ID":null,"SOURCE_ID":"2|FACEBOOK","ASSIGNED_BY_ID":"26","MODIFY_BY_ID":"26"},{"ID":"74","NAME":"HoangMinh","ADDRESS":null,"ADDRESS_CITY":null,"ADDRESS_REGION":null,"ADDRESS_PROVINCE":null,"ADDRESS_COUNTRY":null,"TYPE_ID":null,"SOURCE_ID":"2|FACEBOOK","ASSIGNED_BY_ID":"26","MODIFY_BY_ID":"26"},{"ID":"76","NAME":"T\u00e2y S\u01a1n","ADDRESS":null,"ADDRESS_CITY":null,"ADDRESS_REGION":null,"ADDRESS_PROVINCE":null,"ADDRESS_COUNTRY":null,"TYPE_ID":null,"SOURCE_ID":"2|FACEBOOK","ASSIGNED_BY_ID":"6","MODIFY_BY_ID":"6"},{"ID":"78","NAME":"Quang","ADDRESS":null,"ADDRESS_CITY":null,"ADDRESS_REGION":null,"ADDRESS_PROVINCE":null,"ADDRESS_COUNTRY":null,"TYPE_ID":null,"SOURCE_ID":"2|FACEBOOK","ASSIGNED_BY_ID":"1","MODIFY_BY_ID":"1","PHONE":[{"ID":"132890","VALUE_TYPE":"MOBILE","VALUE":"+0935134167","TYPE_ID":"PHONE"}]},{"ID":"80","NAME":"Tr\u01b0\u1eddng","ADDRESS":null,"ADDRESS_CITY":null,"ADDRESS_REGION":null,"ADDRESS_PROVINCE":null,"ADDRESS_COUNTRY":null,"TYPE_ID":null,"SOURCE_ID":"2|FACEBOOK","ASSIGNED_BY_ID":"1","MODIFY_BY_ID":"182","PHONE":[{"ID":"326","VALUE_TYPE":"WORK","VALUE":"+84962140964","TYPE_ID":"PHONE"}]},{"ID":"82","NAME":"Ba","ADDRESS":null,"ADDRESS_CITY":null,"ADDRESS_REGION":null,"ADDRESS_PROVINCE":null,"ADDRESS_COUNTRY":null,"TYPE_ID":null,"SOURCE_ID":"2|FACEBOOK","ASSIGNED_BY_ID":"1","MODIFY_BY_ID":"1"},{"ID":"84","NAME":"Qu\u00e2n","ADDRESS":null,"ADDRESS_CITY":null,"ADDRESS_REGION":null,"ADDRESS_PROVINCE":null,"ADDRESS_COUNTRY":null,"TYPE_ID":null,"SOURCE_ID":"2|FACEBOOK","ASSIGNED_BY_ID":"26","MODIFY_BY_ID":"186"},{"ID":"86","NAME":"H\u00e2n","ADDRESS":null,"ADDRESS_CITY":null,"ADDRESS_REGION":null,"ADDRESS_PROVINCE":null,"ADDRESS_COUNTRY":null,"TYPE_ID":null,"SOURCE_ID":"2|FACEBOOK","ASSIGNED_BY_ID":"1","MODIFY_BY_ID":"1"},{"ID":"88","NAME":"C\u1ea7m","ADDRESS":null,"ADDRESS_CITY":null,"ADDRESS_REGION":null,"ADDRESS_PROVINCE":null,"ADDRESS_COUNTRY":null,"TYPE_ID":null,"SOURCE_ID":"2|FACEBOOK","ASSIGNED_BY_ID":"654","MODIFY_BY_ID":"654"},{"ID":"90","NAME":"Kaitou","ADDRESS":null,"ADDRESS_CITY":null,"ADDRESS_REGION":null,"ADDRESS_PROVINCE":null,"ADDRESS_COUNTRY":null,"TYPE_ID":null,"SOURCE_ID":"2|FACEBOOK","ASSIGNED_BY_ID":"30","MODIFY_BY_ID":"30"},{"ID":"92","NAME":"An","ADDRESS":null,"ADDRESS_CITY":null,"ADDRESS_REGION":null,"ADDRESS_PROVINCE":null,"ADDRESS_COUNTRY":null,"TYPE_ID":null,"SOURCE_ID":"2|FACEBOOK","ASSIGNED_BY_ID":"30","MODIFY_BY_ID":"30"},{"ID":"94","NAME":"Kh\u01b0\u01a1ng","ADDRESS":null,"ADDRESS_CITY":null,"ADDRESS_REGION":null,"ADDRESS_PROVINCE":null,"ADDRESS_COUNTRY":null,"TYPE_ID":null,"SOURCE_ID":"2|FACEBOOK","ASSIGNED_BY_ID":"4","MODIFY_BY_ID":"198","PHONE":[{"ID":"704","VALUE_TYPE":"WORK","VALUE":"+84378744108","TYPE_ID":"PHONE"}]},{"ID":"96","NAME":"Tho\u1ea1i","ADDRESS":null,"ADDRESS_CITY":null,"ADDRESS_REGION":null,"ADDRESS_PROVINCE":null,"ADDRESS_COUNTRY":null,"TYPE_ID":null,"SOURCE_ID":"2|FACEBOOK","ASSIGNED_BY_ID":"18","MODIFY_BY_ID":"18"},{"ID":"98","NAME":"Trang","ADDRESS":null,"ADDRESS_CITY":null,"ADDRESS_REGION":null,"ADDRESS_PROVINCE":null,"ADDRESS_COUNTRY":null,"TYPE_ID":null,"SOURCE_ID":"2|FACEBOOK","ASSIGNED_BY_ID":"30","MODIFY_BY_ID":"202"},{"ID":"100","NAME":"Van","ADDRESS":null,"ADDRESS_CITY":null,"ADDRESS_REGION":null,"ADDRESS_PROVINCE":null,"ADDRESS_COUNTRY":null,"TYPE_ID":null,"SOURCE_ID":"2|FACEBOOK","ASSIGNED_BY_ID":"1","MODIFY_BY_ID":"204","PHONE":[{"ID":"444","VALUE_TYPE":"WORK","VALUE":"+84777817002","TYPE_ID":"PHONE"}]},{"ID":"102","NAME":"Loan","ADDRESS":null,"ADDRESS_CITY":null,"ADDRESS_REGION":null,"ADDRESS_PROVINCE":null,"ADDRESS_COUNTRY":null,"TYPE_ID":null,"SOURCE_ID":"2|FACEBOOK","ASSIGNED_BY_ID":"26","MODIFY_BY_ID":"26"}],"next":50,"total":34712,"time":{"start":1664955528.297377,"finish":1664955528.749276,"duration":0.45189881324768066,"processing":0.3887209892272949,"date_start":"2022-10-05T10:38:48+03:00","date_finish":"2022-10-05T10:38:48+03:00","operating_reset_at":1664956128,"operating":0}}}