{"url":"https:\/\/ddtm.bitrix24.vn\/rest\/37552\/ffio7v4s9hae8sgv\/crm.contact.list.json","info":{"url":"https:\/\/ddtm.bitrix24.vn\/rest\/37552\/ffio7v4s9hae8sgv\/crm.contact.list.json","content_type":"application\/json; charset=utf-8","http_code":200,"header_size":1097,"request_size":210,"filetime":-1,"ssl_verify_result":0,"redirect_count":0,"total_time":0.468369,"namelookup_time":0.001408,"connect_time":0.053268,"pretransfer_time":0.123827,"size_upload":261,"size_download":10136,"speed_download":21658,"speed_upload":557,"download_content_length":-1,"upload_content_length":261,"starttransfer_time":0.123854,"redirect_time":0,"redirect_url":"","primary_ip":"18.140.166.245","certinfo":[],"primary_port":443,"local_ip":"192.168.0.123","local_port":49197},"params":{"method":"crm.contact.list","params":{"select":["ID","NAME","PHONE","EMAIL","ADDRESS","ADDRESS_CITY","ADDRESS_REGION","ADDRESS_PROVINCE","ADDRESS_COUNTRY","TYPE_ID","SOURCE_ID"]}},"result":{"result":[{"ID":"4","NAME":"Long","ADDRESS":null,"ADDRESS_CITY":null,"ADDRESS_REGION":null,"ADDRESS_PROVINCE":null,"ADDRESS_COUNTRY":null,"TYPE_ID":null,"SOURCE_ID":"2|FACEBOOK"},{"ID":"6","NAME":"L\u1ee5a","ADDRESS":null,"ADDRESS_CITY":null,"ADDRESS_REGION":null,"ADDRESS_PROVINCE":null,"ADDRESS_COUNTRY":null,"TYPE_ID":null,"SOURCE_ID":"2|FACEBOOK","PHONE":[{"ID":"30","VALUE_TYPE":"WORK","VALUE":"+84373301576","TYPE_ID":"PHONE"}]},{"ID":"8","NAME":"Th\u00e0nhDanh","ADDRESS":null,"ADDRESS_CITY":null,"ADDRESS_REGION":null,"ADDRESS_PROVINCE":null,"ADDRESS_COUNTRY":null,"TYPE_ID":"CLIENT","SOURCE_ID":"2|FACEBOOK","PHONE":[{"ID":"656","VALUE_TYPE":"WORK","VALUE":"+84354764555","TYPE_ID":"PHONE"}]},{"ID":"10","NAME":"Ph\u1ea1m","ADDRESS":null,"ADDRESS_CITY":null,"ADDRESS_REGION":null,"ADDRESS_PROVINCE":null,"ADDRESS_COUNTRY":null,"TYPE_ID":null,"SOURCE_ID":"2|FACEBOOK","PHONE":[{"ID":"24","VALUE_TYPE":"WORK","VALUE":"+84914633995","TYPE_ID":"PHONE"}]},{"ID":"12","NAME":"Trung","ADDRESS":null,"ADDRESS_CITY":null,"ADDRESS_REGION":null,"ADDRESS_PROVINCE":null,"ADDRESS_COUNTRY":null,"TYPE_ID":null,"SOURCE_ID":"2|FACEBOOK"},{"ID":"14","NAME":"\u0110\u1eddi","ADDRESS":null,"ADDRESS_CITY":null,"ADDRESS_REGION":null,"ADDRESS_PROVINCE":null,"ADDRESS_COUNTRY":null,"TYPE_ID":null,"SOURCE_ID":"2|FACEBOOK"},{"ID":"16","NAME":"Nguy\u1ec5n H\u1ed3ng","ADDRESS":null,"ADDRESS_CITY":null,"ADDRESS_REGION":null,"ADDRESS_PROVINCE":null,"ADDRESS_COUNTRY":null,"TYPE_ID":null,"SOURCE_ID":"2|FACEBOOK","PHONE":[{"ID":"78","VALUE_TYPE":"WORK","VALUE":"+84348871269","TYPE_ID":"PHONE"}]},{"ID":"18","NAME":"Nguy\u1ec5n","ADDRESS":null,"ADDRESS_CITY":null,"ADDRESS_REGION":null,"ADDRESS_PROVINCE":null,"ADDRESS_COUNTRY":null,"TYPE_ID":null,"SOURCE_ID":"2|FACEBOOK"},{"ID":"20","NAME":"Nguy\u1ec5n","ADDRESS":null,"ADDRESS_CITY":null,"ADDRESS_REGION":null,"ADDRESS_PROVINCE":null,"ADDRESS_COUNTRY":null,"TYPE_ID":null,"SOURCE_ID":"2|FACEBOOK"},{"ID":"22","NAME":"L\u00ea","ADDRESS":null,"ADDRESS_CITY":null,"ADDRESS_REGION":null,"ADDRESS_PROVINCE":null,"ADDRESS_COUNTRY":null,"TYPE_ID":null,"SOURCE_ID":"2|FACEBOOK","PHONE":[{"ID":"52","VALUE_TYPE":"WORK","VALUE":"+84349844346","TYPE_ID":"PHONE"}]},{"ID":"24","NAME":"Sooyun","ADDRESS":null,"ADDRESS_CITY":null,"ADDRESS_REGION":null,"ADDRESS_PROVINCE":null,"ADDRESS_COUNTRY":null,"TYPE_ID":null,"SOURCE_ID":"2|FACEBOOK"},{"ID":"26","NAME":"Nguy\u1ec5n","ADDRESS":null,"ADDRESS_CITY":null,"ADDRESS_REGION":null,"ADDRESS_PROVINCE":null,"ADDRESS_COUNTRY":null,"TYPE_ID":null,"SOURCE_ID":"2|FACEBOOK","PHONE":[{"ID":"546","VALUE_TYPE":"WORK","VALUE":"+84932634605","TYPE_ID":"PHONE"}]},{"ID":"28","NAME":"V\u0169","ADDRESS":null,"ADDRESS_CITY":null,"ADDRESS_REGION":null,"ADDRESS_PROVINCE":null,"ADDRESS_COUNTRY":null,"TYPE_ID":null,"SOURCE_ID":"2|FACEBOOK","PHONE":[{"ID":"216","VALUE_TYPE":"WORK","VALUE":"+84911836470","TYPE_ID":"PHONE"}]},{"ID":"30","NAME":"H\u01b0ng","ADDRESS":null,"ADDRESS_CITY":null,"ADDRESS_REGION":null,"ADDRESS_PROVINCE":null,"ADDRESS_COUNTRY":null,"TYPE_ID":null,"SOURCE_ID":"2|FACEBOOK"},{"ID":"32","NAME":"Ti\u1ebfn","ADDRESS":null,"ADDRESS_CITY":null,"ADDRESS_REGION":null,"ADDRESS_PROVINCE":null,"ADDRESS_COUNTRY":null,"TYPE_ID":null,"SOURCE_ID":"2|FACEBOOK"},{"ID":"34","NAME":"Cos-Concept","ADDRESS":null,"ADDRESS_CITY":null,"ADDRESS_REGION":null,"ADDRESS_PROVINCE":null,"ADDRESS_COUNTRY":null,"TYPE_ID":null,"SOURCE_ID":"2|FACEBOOK"},{"ID":"36","NAME":"Th\u1eafng","ADDRESS":null,"ADDRESS_CITY":null,"ADDRESS_REGION":null,"ADDRESS_PROVINCE":null,"ADDRESS_COUNTRY":null,"TYPE_ID":null,"SOURCE_ID":"2|FACEBOOK"},{"ID":"38","NAME":"V\u0169","ADDRESS":null,"ADDRESS_CITY":null,"ADDRESS_REGION":null,"ADDRESS_PROVINCE":null,"ADDRESS_COUNTRY":null,"TYPE_ID":null,"SOURCE_ID":"2|FACEBOOK"},{"ID":"40","NAME":"Huy","ADDRESS":null,"ADDRESS_CITY":null,"ADDRESS_REGION":null,"ADDRESS_PROVINCE":null,"ADDRESS_COUNTRY":null,"TYPE_ID":null,"SOURCE_ID":"2|FACEBOOK","PHONE":[{"ID":"92","VALUE_TYPE":"WORK","VALUE":"+84948504905","TYPE_ID":"PHONE"}]},{"ID":"42","NAME":"B\u00e3o","ADDRESS":null,"ADDRESS_CITY":null,"ADDRESS_REGION":null,"ADDRESS_PROVINCE":null,"ADDRESS_COUNTRY":null,"TYPE_ID":null,"SOURCE_ID":"2|FACEBOOK"},{"ID":"44","NAME":"H\u1ea3i","ADDRESS":null,"ADDRESS_CITY":null,"ADDRESS_REGION":null,"ADDRESS_PROVINCE":null,"ADDRESS_COUNTRY":null,"TYPE_ID":null,"SOURCE_ID":"2|FACEBOOK"},{"ID":"46","NAME":"Danh","ADDRESS":null,"ADDRESS_CITY":null,"ADDRESS_REGION":null,"ADDRESS_PROVINCE":null,"ADDRESS_COUNTRY":null,"TYPE_ID":null,"SOURCE_ID":"2|FACEBOOK"},{"ID":"48","NAME":"Li\u00ean","ADDRESS":null,"ADDRESS_CITY":null,"ADDRESS_REGION":null,"ADDRESS_PROVINCE":null,"ADDRESS_COUNTRY":null,"TYPE_ID":null,"SOURCE_ID":"2|FACEBOOK","PHONE":[{"ID":"140","VALUE_TYPE":"WORK","VALUE":"+84966912686","TYPE_ID":"PHONE"}]},{"ID":"50","NAME":"Sinh","ADDRESS":null,"ADDRESS_CITY":null,"ADDRESS_REGION":null,"ADDRESS_PROVINCE":null,"ADDRESS_COUNTRY":null,"TYPE_ID":null,"SOURCE_ID":"2|FACEBOOK"},{"ID":"52","NAME":"Anh","ADDRESS":null,"ADDRESS_CITY":null,"ADDRESS_REGION":null,"ADDRESS_PROVINCE":null,"ADDRESS_COUNTRY":null,"TYPE_ID":null,"SOURCE_ID":"2|FACEBOOK"},{"ID":"54","NAME":"Vu","ADDRESS":null,"ADDRESS_CITY":null,"ADDRESS_REGION":null,"ADDRESS_PROVINCE":null,"ADDRESS_COUNTRY":null,"TYPE_ID":null,"SOURCE_ID":"2|FACEBOOK"},{"ID":"56","NAME":"Nguyen","ADDRESS":null,"ADDRESS_CITY":null,"ADDRESS_REGION":null,"ADDRESS_PROVINCE":null,"ADDRESS_COUNTRY":null,"TYPE_ID":null,"SOURCE_ID":"2|FACEBOOK","PHONE":[{"ID":"142","VALUE_TYPE":"WORK","VALUE":"+84935489433","TYPE_ID":"PHONE"}]},{"ID":"58","NAME":"Nguy\u00ean","ADDRESS":null,"ADDRESS_CITY":null,"ADDRESS_REGION":null,"ADDRESS_PROVINCE":null,"ADDRESS_COUNTRY":null,"TYPE_ID":null,"SOURCE_ID":"2|FACEBOOK","PHONE":[{"ID":"130","VALUE_TYPE":"WORK","VALUE":"+84982406389","TYPE_ID":"PHONE"}]},{"ID":"60","NAME":"H\u1ea3i","ADDRESS":null,"ADDRESS_CITY":null,"ADDRESS_REGION":null,"ADDRESS_PROVINCE":null,"ADDRESS_COUNTRY":null,"TYPE_ID":null,"SOURCE_ID":"2|FACEBOOK"},{"ID":"62","NAME":"Thu","ADDRESS":null,"ADDRESS_CITY":null,"ADDRESS_REGION":null,"ADDRESS_PROVINCE":null,"ADDRESS_COUNTRY":null,"TYPE_ID":null,"SOURCE_ID":"2|FACEBOOK"},{"ID":"64","NAME":"Super","ADDRESS":null,"ADDRESS_CITY":null,"ADDRESS_REGION":null,"ADDRESS_PROVINCE":null,"ADDRESS_COUNTRY":null,"TYPE_ID":null,"SOURCE_ID":"2|FACEBOOK"},{"ID":"66","NAME":"Huy\u1ec1n M\u00f4n","ADDRESS":null,"ADDRESS_CITY":null,"ADDRESS_REGION":null,"ADDRESS_PROVINCE":null,"ADDRESS_COUNTRY":null,"TYPE_ID":null,"SOURCE_ID":"2|FACEBOOK"},{"ID":"68","NAME":"\u0110\u1ea1t","ADDRESS":null,"ADDRESS_CITY":null,"ADDRESS_REGION":null,"ADDRESS_PROVINCE":null,"ADDRESS_COUNTRY":null,"TYPE_ID":null,"SOURCE_ID":"2|FACEBOOK"},{"ID":"70","NAME":"Phuong Anh","ADDRESS":null,"ADDRESS_CITY":null,"ADDRESS_REGION":null,"ADDRESS_PROVINCE":null,"ADDRESS_COUNTRY":null,"TYPE_ID":null,"SOURCE_ID":"2|FACEBOOK"},{"ID":"72","NAME":"Thinh","ADDRESS":null,"ADDRESS_CITY":null,"ADDRESS_REGION":null,"ADDRESS_PROVINCE":null,"ADDRESS_COUNTRY":null,"TYPE_ID":null,"SOURCE_ID":"2|FACEBOOK"},{"ID":"74","NAME":"HoangMinh","ADDRESS":null,"ADDRESS_CITY":null,"ADDRESS_REGION":null,"ADDRESS_PROVINCE":null,"ADDRESS_COUNTRY":null,"TYPE_ID":null,"SOURCE_ID":"2|FACEBOOK"},{"ID":"76","NAME":"T\u00e2y S\u01a1n","ADDRESS":null,"ADDRESS_CITY":null,"ADDRESS_REGION":null,"ADDRESS_PROVINCE":null,"ADDRESS_COUNTRY":null,"TYPE_ID":null,"SOURCE_ID":"2|FACEBOOK"},{"ID":"78","NAME":"Quang","ADDRESS":null,"ADDRESS_CITY":null,"ADDRESS_REGION":null,"ADDRESS_PROVINCE":null,"ADDRESS_COUNTRY":null,"TYPE_ID":null,"SOURCE_ID":"2|FACEBOOK"},{"ID":"80","NAME":"Tr\u01b0\u1eddng","ADDRESS":null,"ADDRESS_CITY":null,"ADDRESS_REGION":null,"ADDRESS_PROVINCE":null,"ADDRESS_COUNTRY":null,"TYPE_ID":null,"SOURCE_ID":"2|FACEBOOK","PHONE":[{"ID":"326","VALUE_TYPE":"WORK","VALUE":"+84962140964","TYPE_ID":"PHONE"}]},{"ID":"82","NAME":"Ba","ADDRESS":null,"ADDRESS_CITY":null,"ADDRESS_REGION":null,"ADDRESS_PROVINCE":null,"ADDRESS_COUNTRY":null,"TYPE_ID":null,"SOURCE_ID":"2|FACEBOOK"},{"ID":"84","NAME":"Qu\u00e2n","ADDRESS":null,"ADDRESS_CITY":null,"ADDRESS_REGION":null,"ADDRESS_PROVINCE":null,"ADDRESS_COUNTRY":null,"TYPE_ID":null,"SOURCE_ID":"2|FACEBOOK"},{"ID":"86","NAME":"H\u00e2n","ADDRESS":null,"ADDRESS_CITY":null,"ADDRESS_REGION":null,"ADDRESS_PROVINCE":null,"ADDRESS_COUNTRY":null,"TYPE_ID":null,"SOURCE_ID":"2|FACEBOOK"},{"ID":"88","NAME":"C\u1ea7m","ADDRESS":null,"ADDRESS_CITY":null,"ADDRESS_REGION":null,"ADDRESS_PROVINCE":null,"ADDRESS_COUNTRY":null,"TYPE_ID":null,"SOURCE_ID":"2|FACEBOOK"},{"ID":"90","NAME":"Kaitou","ADDRESS":null,"ADDRESS_CITY":null,"ADDRESS_REGION":null,"ADDRESS_PROVINCE":null,"ADDRESS_COUNTRY":null,"TYPE_ID":null,"SOURCE_ID":"2|FACEBOOK"},{"ID":"92","NAME":"An","ADDRESS":null,"ADDRESS_CITY":null,"ADDRESS_REGION":null,"ADDRESS_PROVINCE":null,"ADDRESS_COUNTRY":null,"TYPE_ID":null,"SOURCE_ID":"2|FACEBOOK"},{"ID":"94","NAME":"Kh\u01b0\u01a1ng","ADDRESS":null,"ADDRESS_CITY":null,"ADDRESS_REGION":null,"ADDRESS_PROVINCE":null,"ADDRESS_COUNTRY":null,"TYPE_ID":null,"SOURCE_ID":"2|FACEBOOK","PHONE":[{"ID":"704","VALUE_TYPE":"WORK","VALUE":"+84378744108","TYPE_ID":"PHONE"}]},{"ID":"96","NAME":"Tho\u1ea1i","ADDRESS":null,"ADDRESS_CITY":null,"ADDRESS_REGION":null,"ADDRESS_PROVINCE":null,"ADDRESS_COUNTRY":null,"TYPE_ID":null,"SOURCE_ID":"2|FACEBOOK"},{"ID":"98","NAME":"Trang","ADDRESS":null,"ADDRESS_CITY":null,"ADDRESS_REGION":null,"ADDRESS_PROVINCE":null,"ADDRESS_COUNTRY":null,"TYPE_ID":null,"SOURCE_ID":"2|FACEBOOK"},{"ID":"100","NAME":"Van","ADDRESS":null,"ADDRESS_CITY":null,"ADDRESS_REGION":null,"ADDRESS_PROVINCE":null,"ADDRESS_COUNTRY":null,"TYPE_ID":null,"SOURCE_ID":"2|FACEBOOK","PHONE":[{"ID":"444","VALUE_TYPE":"WORK","VALUE":"+84777817002","TYPE_ID":"PHONE"}]},{"ID":"102","NAME":"Loan","ADDRESS":null,"ADDRESS_CITY":null,"ADDRESS_REGION":null,"ADDRESS_PROVINCE":null,"ADDRESS_COUNTRY":null,"TYPE_ID":null,"SOURCE_ID":"2|FACEBOOK"}],"next":50,"total":3128,"time":{"start":1644894007.217383,"finish":1644894007.262993,"duration":0.04561018943786621,"processing":0.027184009552001953,"date_start":"2022-02-15T06:00:07+03:00","date_finish":"2022-02-15T06:00:07+03:00"}}}