{"url":"https:\/\/ddtm.bitrix24.vn\/rest\/37552\/ffio7v4s9hae8sgv\/crm.deal.list.json","info":{"url":"https:\/\/ddtm.bitrix24.vn\/rest\/37552\/ffio7v4s9hae8sgv\/crm.deal.list.json","content_type":"application\/json; charset=utf-8","http_code":200,"header_size":1097,"request_size":207,"filetime":-1,"ssl_verify_result":0,"redirect_count":0,"total_time":0.490348,"namelookup_time":0.00566,"connect_time":0.057434,"pretransfer_time":0.133976,"size_upload":165,"size_download":9680,"speed_download":19755,"speed_upload":336,"download_content_length":-1,"upload_content_length":165,"starttransfer_time":0.133996,"redirect_time":0,"redirect_url":"","primary_ip":"18.140.166.245","certinfo":[],"primary_port":443,"local_ip":"192.168.0.123","local_port":63099},"params":{"method":"crm.deal.list","params":{"filter":{"id":4222},"select":["STAGE_ID","TITLE","CATEGORY_ID","CURRENCY_ID","OPPORTUNITY","CONTACT_ID"]}},"result":{"result":[{"STAGE_ID":"NEW","TITLE":"G\u1ecdi Anh Th\u1eafng Mua 13 Pro Max","CATEGORY_ID":"0","CURRENCY_ID":"VND","OPPORTUNITY":"45980000.00","CONTACT_ID":"6304","ID":"2"},{"STAGE_ID":"NEW","TITLE":"H\u1ed3 Long - K\u00eanh M\u1edf Di \u0110\u1ed9ng Th\u00f4ng Minh","CATEGORY_ID":"0","CURRENCY_ID":"VND","OPPORTUNITY":"0.00","CONTACT_ID":"4","ID":"4"},{"STAGE_ID":"NEW","TITLE":"Kim L\u1ee5a - K\u00eanh M\u1edf Di \u0110\u1ed9ng Th\u00f4ng Minh","CATEGORY_ID":"0","CURRENCY_ID":"VND","OPPORTUNITY":"0.00","CONTACT_ID":"6","ID":"6"},{"STAGE_ID":"WON","TITLE":"Phan Th\u00e0nhDanh - K\u00eanh M\u1edf Di \u0110\u1ed9ng Th\u00f4ng Minh","CATEGORY_ID":"0","CURRENCY_ID":"VND","OPPORTUNITY":"5990000.00","CONTACT_ID":"8","ID":"8"},{"STAGE_ID":"NEW","TITLE":"Ph\u00fac Ph\u1ea1m - K\u00eanh M\u1edf Di \u0110\u1ed9ng Th\u00f4ng Minh","CATEGORY_ID":"0","CURRENCY_ID":"VND","OPPORTUNITY":"0.00","CONTACT_ID":"10","ID":"10"},{"STAGE_ID":"NEW","TITLE":"Hi\u1ebfu Trung - K\u00eanh M\u1edf Di \u0110\u1ed9ng Th\u00f4ng Minh","CATEGORY_ID":"0","CURRENCY_ID":"VND","OPPORTUNITY":"0.00","CONTACT_ID":"12","ID":"12"},{"STAGE_ID":"NEW","TITLE":"Th\u1ebf \u0110\u1eddi - K\u00eanh M\u1edf Di \u0110\u1ed9ng Th\u00f4ng Minh","CATEGORY_ID":"0","CURRENCY_ID":"VND","OPPORTUNITY":"0.00","CONTACT_ID":"14","ID":"14"},{"STAGE_ID":"NEW","TITLE":"S\u01a1n Nguy\u1ec5n H\u1ed3ng - K\u00eanh M\u1edf Di \u0110\u1ed9ng Th\u00f4ng Minh","CATEGORY_ID":"0","CURRENCY_ID":"VND","OPPORTUNITY":"0.00","CONTACT_ID":"16","ID":"16"},{"STAGE_ID":"NEW","TITLE":"Quang Nguy\u1ec5n - K\u00eanh M\u1edf Di \u0110\u1ed9ng Th\u00f4ng Minh","CATEGORY_ID":"0","CURRENCY_ID":"VND","OPPORTUNITY":"0.00","CONTACT_ID":"18","ID":"18"},{"STAGE_ID":"NEW","TITLE":"D\u0169ng Nguy\u1ec5n - K\u00eanh M\u1edf Di \u0110\u1ed9ng Th\u00f4ng Minh","CATEGORY_ID":"0","CURRENCY_ID":"VND","OPPORTUNITY":"0.00","CONTACT_ID":"20","ID":"20"},{"STAGE_ID":"NEW","TITLE":"H\u1ed3ng Qu\u00e2n L\u00ea - K\u00eanh M\u1edf Di \u0110\u1ed9ng Th\u00f4ng Minh","CATEGORY_ID":"0","CURRENCY_ID":"VND","OPPORTUNITY":"0.00","CONTACT_ID":"22","ID":"22"},{"STAGE_ID":"NEW","TITLE":"HD Sooyun - K\u00eanh M\u1edf Di \u0110\u1ed9ng Th\u00f4ng Minh","CATEGORY_ID":"0","CURRENCY_ID":"VND","OPPORTUNITY":"0.00","CONTACT_ID":"24","ID":"24"},{"STAGE_ID":"PREPARATION","TITLE":"Th\u0103ng Nguy\u1ec5n - K\u00eanh M\u1edf Di \u0110\u1ed9ng Th\u00f4ng Minh","CATEGORY_ID":"0","CURRENCY_ID":"VND","OPPORTUNITY":"18990000.00","CONTACT_ID":"26","ID":"26"},{"STAGE_ID":"NEW","TITLE":"Nguy\u1ec5n V\u0169 - K\u00eanh M\u1edf Di \u0110\u1ed9ng Th\u00f4ng Minh","CATEGORY_ID":"0","CURRENCY_ID":"VND","OPPORTUNITY":"0.00","CONTACT_ID":"28","ID":"28"},{"STAGE_ID":"NEW","TITLE":"Nguy\u1ec5n H\u01b0ng - K\u00eanh M\u1edf Di \u0110\u1ed9ng Th\u00f4ng Minh","CATEGORY_ID":"0","CURRENCY_ID":"VND","OPPORTUNITY":"0.00","CONTACT_ID":"30","ID":"30"},{"STAGE_ID":"NEW","TITLE":"Nguy\u1ec5n Ti\u1ebfn - K\u00eanh M\u1edf Di \u0110\u1ed9ng Th\u00f4ng Minh","CATEGORY_ID":"0","CURRENCY_ID":"VND","OPPORTUNITY":"0.00","CONTACT_ID":"32","ID":"32"},{"STAGE_ID":"NEW","TITLE":"ThangMinh Cos-Concept - K\u00eanh M\u1edf Di \u0110\u1ed9ng Th\u00f4ng Minh","CATEGORY_ID":"0","CURRENCY_ID":"VND","OPPORTUNITY":"0.00","CONTACT_ID":"34","ID":"34"},{"STAGE_ID":"NEW","TITLE":"Th\u1eafng Th\u1eafng - K\u00eanh M\u1edf Di \u0110\u1ed9ng Th\u00f4ng Minh","CATEGORY_ID":"0","CURRENCY_ID":"VND","OPPORTUNITY":"0.00","CONTACT_ID":"36","ID":"36"},{"STAGE_ID":"NEW","TITLE":"Kh\u01b0\u01a1ng V\u0169 - K\u00eanh M\u1edf Di \u0110\u1ed9ng Th\u00f4ng Minh","CATEGORY_ID":"0","CURRENCY_ID":"VND","OPPORTUNITY":"0.00","CONTACT_ID":"38","ID":"38"},{"STAGE_ID":"NEW","TITLE":"Nguy\u1ec5n Huy - K\u00eanh M\u1edf Di \u0110\u1ed9ng Th\u00f4ng Minh","CATEGORY_ID":"0","CURRENCY_ID":"VND","OPPORTUNITY":"0.00","CONTACT_ID":"40","ID":"40"},{"STAGE_ID":"NEW","TITLE":"tr\u01b0\u01a1ng B\u00e3o - K\u00eanh M\u1edf Di \u0110\u1ed9ng Th\u00f4ng Minh","CATEGORY_ID":"0","CURRENCY_ID":"VND","OPPORTUNITY":"0.00","CONTACT_ID":"42","ID":"42"},{"STAGE_ID":"NEW","TITLE":"B\u0111s H\u1ea3i - K\u00eanh M\u1edf Di \u0110\u1ed9ng Th\u00f4ng Minh","CATEGORY_ID":"0","CURRENCY_ID":"VND","OPPORTUNITY":"0.00","CONTACT_ID":"44","ID":"44"},{"STAGE_ID":"NEW","TITLE":"Ng\u1ecdc Danh - K\u00eanh M\u1edf Di \u0110\u1ed9ng Th\u00f4ng Minh","CATEGORY_ID":"0","CURRENCY_ID":"VND","OPPORTUNITY":"0.00","CONTACT_ID":"46","ID":"46"},{"STAGE_ID":"NEW","TITLE":"T\u1ea1 Li\u00ean - K\u00eanh M\u1edf Di \u0110\u1ed9ng Th\u00f4ng Minh","CATEGORY_ID":"0","CURRENCY_ID":"VND","OPPORTUNITY":"0.00","CONTACT_ID":"48","ID":"48"},{"STAGE_ID":"NEW","TITLE":"V\u0103n Sinh - K\u00eanh M\u1edf Di \u0110\u1ed9ng Th\u00f4ng Minh","CATEGORY_ID":"0","CURRENCY_ID":"VND","OPPORTUNITY":"0.00","CONTACT_ID":"50","ID":"50"},{"STAGE_ID":"NEW","TITLE":"Pham Anh - K\u00eanh M\u1edf Di \u0110\u1ed9ng Th\u00f4ng Minh","CATEGORY_ID":"0","CURRENCY_ID":"VND","OPPORTUNITY":"0.00","CONTACT_ID":"52","ID":"52"},{"STAGE_ID":"NEW","TITLE":"Nguyen Vu - K\u00eanh M\u1edf Di \u0110\u1ed9ng Th\u00f4ng Minh","CATEGORY_ID":"0","CURRENCY_ID":"VND","OPPORTUNITY":"0.00","CONTACT_ID":"54","ID":"54"},{"STAGE_ID":"PREPARATION","TITLE":"Kiet Nguyen - K\u00eanh M\u1edf Di \u0110\u1ed9ng Th\u00f4ng Minh","CATEGORY_ID":"0","CURRENCY_ID":"VND","OPPORTUNITY":"0.00","CONTACT_ID":"56","ID":"56"},{"STAGE_ID":"NEW","TITLE":"Th\u1ea3o Nguy\u00ean - K\u00eanh M\u1edf Di \u0110\u1ed9ng Th\u00f4ng Minh","CATEGORY_ID":"0","CURRENCY_ID":"VND","OPPORTUNITY":"0.00","CONTACT_ID":"58","ID":"58"},{"STAGE_ID":"NEW","TITLE":"Phan H\u1ea3i - K\u00eanh M\u1edf Di \u0110\u1ed9ng Th\u00f4ng Minh","CATEGORY_ID":"0","CURRENCY_ID":"VND","OPPORTUNITY":"0.00","CONTACT_ID":"60","ID":"60"},{"STAGE_ID":"NEW","TITLE":"H\u01b0\u01a1ngg Thu - K\u00eanh M\u1edf Di \u0110\u1ed9ng Th\u00f4ng Minh","CATEGORY_ID":"0","CURRENCY_ID":"VND","OPPORTUNITY":"0.00","CONTACT_ID":"62","ID":"62"},{"STAGE_ID":"NEW","TITLE":"Minh Super - K\u00eanh M\u1edf Di \u0110\u1ed9ng Th\u00f4ng Minh","CATEGORY_ID":"0","CURRENCY_ID":"VND","OPPORTUNITY":"0.00","CONTACT_ID":"64","ID":"64"},{"STAGE_ID":"NEW","TITLE":"L\u00e2m Huy\u1ec1n M\u00f4n - K\u00eanh M\u1edf Di \u0110\u1ed9ng Th\u00f4ng Minh","CATEGORY_ID":"0","CURRENCY_ID":"VND","OPPORTUNITY":"0.00","CONTACT_ID":"66","ID":"66"},{"STAGE_ID":"NEW","TITLE":"\u0110\u1ea1t \u0110\u1ea1t - K\u00eanh M\u1edf Di \u0110\u1ed9ng Th\u00f4ng Minh","CATEGORY_ID":"0","CURRENCY_ID":"VND","OPPORTUNITY":"0.00","CONTACT_ID":"68","ID":"68"},{"STAGE_ID":"NEW","TITLE":"Pham Phuong Anh - K\u00eanh M\u1edf Di \u0110\u1ed9ng Th\u00f4ng Minh","CATEGORY_ID":"0","CURRENCY_ID":"VND","OPPORTUNITY":"0.00","CONTACT_ID":"70","ID":"70"},{"STAGE_ID":"NEW","TITLE":"Duc Thinh - K\u00eanh M\u1edf Di \u0110\u1ed9ng Th\u00f4ng Minh","CATEGORY_ID":"0","CURRENCY_ID":"VND","OPPORTUNITY":"0.00","CONTACT_ID":"72","ID":"72"},{"STAGE_ID":"NEW","TITLE":"Pham HoangMinh - K\u00eanh M\u1edf Di \u0110\u1ed9ng Th\u00f4ng Minh","CATEGORY_ID":"0","CURRENCY_ID":"VND","OPPORTUNITY":"0.00","CONTACT_ID":"74","ID":"74"},{"STAGE_ID":"NEW","TITLE":"Ch\u01b0\u01a1ng T\u00e2y S\u01a1n - K\u00eanh M\u1edf Di \u0110\u1ed9ng Th\u00f4ng Minh","CATEGORY_ID":"0","CURRENCY_ID":"VND","OPPORTUNITY":"0.00","CONTACT_ID":"76","ID":"76"},{"STAGE_ID":"NEW","TITLE":"Nam Quang - K\u00eanh M\u1edf Di \u0110\u1ed9ng Th\u00f4ng Minh","CATEGORY_ID":"0","CURRENCY_ID":"VND","OPPORTUNITY":"0.00","CONTACT_ID":"78","ID":"78"},{"STAGE_ID":"PREPARATION","TITLE":"Mai Tr\u01b0\u1eddng - K\u00eanh M\u1edf Di \u0110\u1ed9ng Th\u00f4ng Minh","CATEGORY_ID":"0","CURRENCY_ID":"VND","OPPORTUNITY":"0.00","CONTACT_ID":"80","ID":"80"},{"STAGE_ID":"NEW","TITLE":"Vo Ba - K\u00eanh M\u1edf Di \u0110\u1ed9ng Th\u00f4ng Minh","CATEGORY_ID":"0","CURRENCY_ID":"VND","OPPORTUNITY":"0.00","CONTACT_ID":"82","ID":"82"},{"STAGE_ID":"NEW","TITLE":"\u0110\u1ed3ng Qu\u00e2n - K\u00eanh M\u1edf Di \u0110\u1ed9ng Th\u00f4ng Minh","CATEGORY_ID":"0","CURRENCY_ID":"VND","OPPORTUNITY":"0.00","CONTACT_ID":"84","ID":"84"},{"STAGE_ID":"NEW","TITLE":"Ho\u00e0ng H\u00e2n - K\u00eanh M\u1edf Di \u0110\u1ed9ng Th\u00f4ng Minh","CATEGORY_ID":"0","CURRENCY_ID":"VND","OPPORTUNITY":"0.00","CONTACT_ID":"86","ID":"86"},{"STAGE_ID":"NEW","TITLE":"Di\u1ec7p C\u1ea7m - K\u00eanh M\u1edf Di \u0110\u1ed9ng Th\u00f4ng Minh","CATEGORY_ID":"0","CURRENCY_ID":"VND","OPPORTUNITY":"0.00","CONTACT_ID":"88","ID":"88"},{"STAGE_ID":"NEW","TITLE":"L\u00e2m Kaitou - K\u00eanh M\u1edf Di \u0110\u1ed9ng Th\u00f4ng Minh","CATEGORY_ID":"0","CURRENCY_ID":"VND","OPPORTUNITY":"0.00","CONTACT_ID":"90","ID":"90"},{"STAGE_ID":"NEW","TITLE":"Tr\u1ea7n An - K\u00eanh M\u1edf Di \u0110\u1ed9ng Th\u00f4ng Minh","CATEGORY_ID":"0","CURRENCY_ID":"VND","OPPORTUNITY":"0.00","CONTACT_ID":"92","ID":"92"},{"STAGE_ID":"NEW","TITLE":"Duy Kh\u01b0\u01a1ng - K\u00eanh M\u1edf Di \u0110\u1ed9ng Th\u00f4ng Minh","CATEGORY_ID":"0","CURRENCY_ID":"VND","OPPORTUNITY":"0.00","CONTACT_ID":"94","ID":"94"},{"STAGE_ID":"NEW","TITLE":"Huy\u1ec1n Tho\u1ea1i - K\u00eanh M\u1edf Di \u0110\u1ed9ng Th\u00f4ng Minh","CATEGORY_ID":"0","CURRENCY_ID":"VND","OPPORTUNITY":"0.00","CONTACT_ID":"96","ID":"96"},{"STAGE_ID":"NEW","TITLE":"Ki\u1ec1u Trang - K\u00eanh M\u1edf Di \u0110\u1ed9ng Th\u00f4ng Minh","CATEGORY_ID":"0","CURRENCY_ID":"VND","OPPORTUNITY":"0.00","CONTACT_ID":"98","ID":"98"},{"STAGE_ID":"NEW","TITLE":"Tien Van - K\u00eanh M\u1edf Di \u0110\u1ed9ng Th\u00f4ng Minh","CATEGORY_ID":"0","CURRENCY_ID":"VND","OPPORTUNITY":"0.00","CONTACT_ID":"100","ID":"100"}],"next":50,"total":2115,"time":{"start":1644895326.37196,"finish":1644895326.432924,"duration":0.060964107513427734,"processing":0.03948807716369629,"date_start":"2022-02-15T06:22:06+03:00","date_finish":"2022-02-15T06:22:06+03:00"}}}